{
   "kind":"Service",
   "apiVersion":"v1",
   "metadata":{
      "name":"guestbook",
      "labels":{
         "app":"guestbook"
      }
   },
   "spec":{
      "ports": [
         {
           "port":8080,
           "targetPort":"http-server"
         }
      ],
      "selector":{
         "app":"guestbook"
      },
      "type": "LoadBalancer"
   }
}
{
   "kind":"ReplicationController",
   "apiVersion":"v1",
   "metadata":{
      "name":"guestbook",
      "labels":{
         "app":"guestbook"
      }
   },
   "spec":{
      "replicas":3,
      "selector":{
         "app":"guestbook"
      },
      "template":{
         "metadata":{
            "labels":{
               "app":"guestbook"
            }
         },
         "spec":{
            "containers":[
               {
                  "name":"guestbook",
                  "image":"811868514893.dkr.ecr.us-east-1.amazonaws.com/spring-crud-test:latest",
                  "ports":[
                     {
                        "name":"http-server",
                        "containerPort":8080
                     }
                  ]
               }
            ]
         }
      }
   }
}
